%YAML 1.1
%TAG !u! tag:unity3d.com,2011:
--- !u!114 &11400000
MonoBehaviour:
  m_ObjectHideFlags: 0
  m_PrefabParentObject: {fileID: 0}
  m_PrefabInternal: {fileID: 0}
  m_GameObject: {fileID: 0}
  m_Enabled: 1
  m_EditorHideFlags: 0
  m_Script: {fileID: 11500000, guid: 0ba35a175d612423090e936e4eb21596, type: 3}
  m_Name: TransparentAssetPipe
  m_EditorClassIdentifier: 
  ShadowDepth: {fileID: 8400000, guid: 67aeb4b14da204216a69d3fbf3a162b2, type: 2}
  ShadowColor: {fileID: 8400000, guid: a1aa6a7a22a71492f87f3667c808f4f1, type: 2}
